…
Warnings:
	
--------------------------------------------------------------------------------
-                         Messages, Output, and Result                         -
--------------------------------------------------------------------------------
Messages:
	
Output:
	

Result:
	# A tibble: 850 × 12
	   STUDYID      DOMAIN USUBJID     DSSEQ DSTERM                DSDECOD               DSCAT              VISITNUM VISIT     DSDTC            DSSTDTC    DSSTDY
	   <chr>        <chr>  <chr>       <int> <chr>                 <chr>                 <chr>                 <dbl> <chr>     <iso8601>        <date>      <int>
	 1 CDISCPILOT01 DS     01-701-1015     1 Randomized            RANDOMIZED            PROTOCOL MILESTONE        3 BASELINE  2014-01-02       2014-01-02      1
	 2 CDISCPILOT01 DS     01-701-1015     2 Protocol Completed    COMPLETED             DISPOSITION EVENT        13 WEEK 26   2014-07-02       2014-07-02    182
	 3 CDISCPILOT01 DS     01-701-1015     3 Final Lab Visit       FINAL LAB VISIT       OTHER EVENT              13 WEEK 26   2014-07-02T11:45 2014-07-02    182
	 4 CDISCPILOT01 DS     01-701-1023     1 Randomized            RANDOMIZED            PROTOCOL MILESTONE        3 BASELINE  2012-08-05       2012-08-05      1
	 5 CDISCPILOT01 DS     01-701-1023     2 Adverse Event         ADVERSE EVENT         DISPOSITION EVENT         5 WEEK 4    2012-09-02       2012-09-02     29
	 6 CDISCPILOT01 DS     01-701-1023     3 Final Lab Visit       FINAL LAB VISIT       OTHER EVENT               5 WEEK 4    2012-09-02T10:15 2012-09-02     29
	 7 CDISCPILOT01 DS     01-701-1023     4 Final Retrieval Visit FINAL RETRIEVAL VISIT OTHER EVENT             201 RETRIEVAL 2013-02-18       2013-02-18    198
	 8 CDISCPILOT01 DS     01-701-1028     1 Randomized            RANDOMIZED            PROTOCOL MILESTONE        3 BASELINE  2013-07-19       2013-07-19      1
	 9 CDISCPILOT01 DS     01-701-1028     2 Protocol Completed    COMPLETED             DISPOSITION EVENT        13 WEEK 26   2014-01-14       2014-01-14    180
	10 CDISCPILOT01 DS     01-701-1028     3 Final Lab Visit       FINAL LAB VISIT       OTHER EVENT              13 WEEK 26   2014-01-14T11:10 2014-01-14    180
	# ℹ 840 more rows
	# ℹ Use `print(n = ...)` to see more rows
…
